<svg width="19" height="20" viewBox="0 0 19 20" fill="none" xmlns="http://www.w3.org/2000/svg">
<path d="M9.50002 11.2652C3.37387 11.2652 0 14.108 0 19.2701C0 19.6732 0.333114 20 0.74412 20H18.2559C18.6669 20 19 19.6732 19 19.2701C19 14.1083 15.6262 11.2652 9.50002 11.2652ZM1.51532 18.5402C1.80801 14.6805 4.49057 12.7251 9.50002 12.7251C14.5095 12.7251 17.1921 14.6805 17.485 18.5402H1.51532Z" fill="#AF884A"/>
<path d="M9.49999 0C6.68594 0 4.56396 2.12336 4.56396 4.93895C4.56396 7.83699 6.77825 10.1944 9.49999 10.1944C12.2217 10.1944 14.436 7.83699 14.436 4.93918C14.436 2.12336 12.314 0 9.49999 0ZM9.49999 8.7348C7.59875 8.7348 6.05221 7.03211 6.05221 4.93918C6.05221 2.92313 7.50226 1.45984 9.49999 1.45984C11.4657 1.45984 12.9478 2.95547 12.9478 4.93918C12.9478 7.03211 11.4012 8.7348 9.49999 8.7348Z" fill="#AF884A"/>
</svg>
