<svg width="178" height="80" viewBox="0 0 178 80" fill="none" xmlns="http://www.w3.org/2000/svg">
<path fill-rule="evenodd" clip-rule="evenodd" d="M94.0099 28.9211C95.2586 30.4947 96.005 32.4851 96.005 34.6494C96.005 39.743 91.8744 43.8736 86.7808 43.8736C81.6875 43.8736 77.5569 39.743 77.5569 34.6494C77.5569 32.485 78.3034 30.4945 79.5521 28.9209C78.9532 30.0568 78.6136 31.3505 78.6136 32.7234C78.6136 37.2335 82.271 40.8909 86.7808 40.8909C91.291 40.8909 94.9482 37.2335 94.9482 32.7234C94.9482 31.3505 94.6087 30.0569 94.0099 28.9211Z" fill="white"/>
<path fill-rule="evenodd" clip-rule="evenodd" d="M86.7933 0.89035C91.0505 0.875066 92.5299 3.19567 93.012 4.40582C93.0167 4.47031 93.0281 4.53621 93.0471 4.6045C94.136 8.52761 89.9099 16.7149 90.5813 21.9107C90.7296 21.8858 90.8839 21.8745 91.013 21.9107C90.8159 17.3339 94.6443 10.1731 94.3498 6.25848C94.3225 5.8977 94.5199 4.11922 95.2279 3.89437C96.3902 3.52526 98.1796 3.63205 99.4842 4.07366C100.897 4.55182 101.69 5.05371 102.331 5.86406C102.58 6.17891 103.051 6.69176 103.013 7.21185C102.38 7.52342 101.925 8.1663 101.615 9.06471C100.839 11.3106 100.839 17.1059 99.0731 18.8084C99.3316 18.9896 99.4509 19.504 99.6732 19.4104C101.797 17.1728 102.208 9.46778 104.342 8.88474C107.894 7.91472 110.325 12.7054 111.439 14.6832C108.126 15.6711 105.005 24.1677 102.972 24.6939C102.972 24.8389 102.851 25.6988 103.153 25.6263C105.393 24.7932 109.441 17.6546 110.725 16.8219C112.058 15.9575 112.865 15.5244 114.13 17.2846C115.656 19.4093 114.894 24.6041 114.808 25.249C114.213 25.5391 113.626 25.9914 113.112 26.5797C111.061 28.9279 103.076 33.2941 103.076 33.2941C103.076 33.2941 103.11 33.3308 103.415 33.4775C103.721 33.2941 112.011 29.5106 114.11 27.8073C115.787 26.446 117.544 26.2858 117.639 28.459C117.734 30.6488 116.431 33.8296 113.415 35.6495C109.786 37.8382 103.45 39.6246 99.1536 39.756C98.7912 39.7671 97.6104 39.6393 97.6104 40.7248C97.6104 41.4461 93.0614 43.409 94.882 43.9312C95.162 44.0115 95.9843 42.6555 98.9349 42.469C103.825 42.1595 110.86 43.4291 113.83 43.1676C114.951 43.0692 114.964 41.8935 114.959 41.9078C115.208 41.9175 100.974 42.0135 99.7309 41.1621C99.3914 40.9296 100.753 40.8117 100.823 40.8112C107.172 40.7649 112.792 37.2624 115.076 35.9358C117.518 34.5174 118.872 31.0192 118.567 27.5338C118.359 25.1622 116.839 24.511 115.256 25.062C115.485 23.5297 116.306 15.2356 112.824 14.4445C112.613 14.3963 112.4 14.3888 112.185 14.4153L112.186 14.4141C111.987 13.8945 108.901 9.49552 107.172 8.30425C105.848 7.39197 104.783 6.98906 103.937 7.00018C103.406 5.9681 100.788 1.79673 93.6904 3.18907C92.1597 0.904219 89.4105 0.00960703 86.7593 0.00439121C82.2927 -0.126166 80.2041 2.69409 79.8725 3.18907C72.7751 1.79673 70.1568 5.9681 69.6261 7.00018C68.7801 6.98906 67.7147 7.39197 66.3908 8.30425C64.6619 9.49552 61.5755 13.8945 61.3772 14.4141L61.3776 14.4153C61.1633 14.3888 60.9503 14.3963 60.7388 14.4445C57.2572 15.2356 58.0782 23.5297 58.3069 25.062C56.7235 24.511 55.2036 25.1622 54.9957 27.5338C54.6904 31.0192 56.0451 34.5174 58.4869 35.9358C60.7704 37.2624 66.391 40.7649 72.74 40.8112C72.8094 40.8116 74.1714 40.9296 73.832 41.1621C72.5892 42.0135 58.3544 41.9175 58.6041 41.9078C58.5984 41.8935 58.6114 43.0692 59.7329 43.1676C62.7031 43.4291 69.7377 42.1595 74.6279 42.469C77.5785 42.6555 78.4009 44.0115 78.6809 43.9312C80.5014 43.409 75.9525 41.4461 75.9525 40.7248C75.9525 39.6393 74.7716 39.7671 74.4093 39.756C70.1124 39.6246 63.7765 37.8382 60.1483 35.6495C57.1316 33.8296 55.8293 30.6488 55.9243 28.459C56.0184 26.2858 57.7757 26.446 59.4533 27.8073C61.5518 29.5106 69.8423 33.2941 70.1478 33.4775C70.4532 33.3308 70.4872 33.2941 70.4872 33.2941C70.4872 33.2941 62.5015 28.9279 60.4505 26.5797C59.9368 25.9914 59.3496 25.5391 58.7546 25.249C58.6686 24.6041 57.9064 19.4093 59.4328 17.2846C60.6974 15.5244 61.5052 15.9575 62.8375 16.8219C64.1215 17.6546 68.1701 24.7932 70.4103 25.6263C70.7118 25.6988 70.5913 24.8389 70.5913 24.6939C68.5576 24.1677 65.4371 15.6711 62.1243 14.6832C63.2378 12.7054 65.669 7.91472 69.2213 8.88474C71.3553 9.46778 71.7657 17.1728 73.8897 19.4104C74.112 19.504 74.2312 18.9896 74.4897 18.8084C72.7234 17.1059 72.7234 11.3106 71.9481 9.06471C71.6378 8.1663 71.183 7.52342 70.5502 7.21185C70.5117 6.69176 70.9826 6.17891 71.2319 5.86406C71.8734 5.05371 72.6658 4.55182 74.0786 4.07366C75.3833 3.63205 77.1727 3.52526 78.335 3.89437C79.043 4.11922 79.2403 5.8977 79.2131 6.25848C78.9185 10.1731 82.747 17.3339 82.5498 21.9107C82.679 21.8745 82.8333 21.8858 82.9815 21.9107C83.653 16.7149 79.4269 8.52761 80.5158 4.6045C80.5347 4.53621 80.5462 4.47031 80.5508 4.40582C81.5725 1.84145 84.1827 0.89035 86.7933 0.89035Z" fill="white"/>
<path fill-rule="evenodd" clip-rule="evenodd" d="M7.76822 80L7.11939 71.3197C6.99078 69.5507 6.92337 68.3876 6.92337 67.8244C6.92337 66.2084 7.15606 64.7269 7.61518 63.3679C8.07433 62.009 8.8884 60.5521 10.0638 58.9972C8.66194 58.9972 7.23559 59.3339 5.78483 60.0072C4.33406 60.6745 3.26886 61.4459 2.5955 62.3151C1.9161 63.1904 1.57934 64.072 1.57934 64.9534C1.57934 65.3636 1.70796 65.7921 1.95897 66.245C2.27725 66.8205 2.4425 67.2551 2.4425 67.555C2.4425 67.8305 2.35678 68.0509 2.19149 68.2161C2.02014 68.3876 1.80585 68.4671 1.54267 68.4671C1.16309 68.4671 0.826484 68.2713 0.538684 67.8795C0.183726 67.353 0 66.6981 0 65.9206C0 64.4637 0.550936 63.0619 1.65281 61.709C2.74862 60.3561 4.2606 59.3585 6.17052 58.7157C7.40088 58.2932 9.19456 58.0055 11.5513 57.8525C12.1818 57.8035 12.8306 57.7423 13.4856 57.675C11.8757 60.0378 10.8229 62.0152 10.3331 63.6006C9.84338 65.186 9.59857 67.3347 9.59857 70.0465C9.59857 72.1279 9.70264 74.0316 9.91685 75.7517L13.3632 72.0727L16.3015 69.0609C19.2705 66.0125 21.2661 63.6067 22.2945 61.8499C23.0719 60.5215 23.4576 59.3156 23.4576 58.2259C23.4576 57.6321 23.3229 56.9711 23.0474 56.2548C22.8699 55.8018 22.7781 55.4529 22.7781 55.2142C22.7781 54.8958 22.9005 54.6143 23.1454 54.3755C23.3902 54.1368 23.678 54.0143 24.0146 54.0143C24.4676 54.0143 24.8533 54.2469 25.1654 54.7122C25.4716 55.1774 25.6307 55.9121 25.6307 56.9037C25.6307 57.8709 25.4287 58.8931 25.0185 59.9767C24.6145 61.0602 23.7575 62.4375 22.4536 64.1086C21.1498 65.7859 19.1358 68.0019 16.4117 70.7627C13.553 73.6582 10.6698 76.7374 7.76822 80ZM30.5095 56.469C30.8768 56.469 31.183 56.5915 31.4217 56.8364C31.6604 57.0812 31.7828 57.3995 31.7828 57.7791C31.7828 58.3055 31.5991 58.7707 31.2319 59.1686C30.8707 59.5727 30.4606 59.7685 30.0076 59.7685C29.6464 59.7685 29.3464 59.6461 29.1077 59.3951C28.8689 59.1441 28.7527 58.8136 28.7527 58.4096C28.7527 57.8709 28.924 57.4117 29.2729 57.0383C29.6157 56.6588 30.032 56.469 30.5095 56.469ZM23.4453 68.3447L22.6557 67.7326C23.8494 66.4165 24.939 65.4859 25.9245 64.9289C26.9101 64.3719 27.7549 64.0903 28.4466 64.0903C28.8262 64.0903 29.1199 64.176 29.322 64.3413C29.5301 64.5126 29.628 64.7392 29.628 65.0269C29.628 65.3697 29.2423 66.8449 28.4649 69.4404C27.1978 73.6827 26.5612 76.2414 26.5612 77.1108C26.5612 77.2821 26.6041 77.4229 26.6897 77.5331C26.7693 77.6494 26.8611 77.7044 26.959 77.7044C27.3386 77.7044 28.318 76.9638 29.8973 75.4823L30.5952 76.1619C28.9608 77.7044 27.7672 78.69 27.0141 79.1247C26.2551 79.5531 25.6429 79.7675 25.1654 79.7675C24.7431 79.7675 24.4125 79.6388 24.1676 79.3756C23.9228 79.1125 23.8004 78.7451 23.8004 78.2799C23.8004 76.7863 24.7002 73.1317 26.4938 67.3224C26.5735 67.047 26.6162 66.8022 26.6162 66.5878C26.6162 66.3491 26.5121 66.2267 26.2919 66.2267C26.0531 66.2267 25.7838 66.3247 25.4777 66.5144C25.1716 66.7042 24.4921 67.3163 23.4453 68.3447ZM39.1346 74.9436L39.7407 75.5864C38.8103 76.6393 37.7084 77.6003 36.4352 78.4697C35.1618 79.3329 34.109 79.7675 33.2825 79.7675C32.9153 79.7675 32.6092 79.6266 32.3704 79.345C32.1317 79.0634 32.0093 78.6778 32.0093 78.1881C32.0093 77.2331 32.3827 75.2498 33.1234 72.238L35.0577 64.3597C35.7679 61.5192 36.3555 59.6093 36.8392 58.6422C37.5798 57.173 38.6265 56.0282 39.9856 55.2142C41.3384 54.3999 42.7708 53.9959 44.2767 53.9959C44.791 53.9959 45.195 54.1184 45.4887 54.3633C45.7826 54.6081 45.9295 54.908 45.9295 55.2508C45.9295 55.6365 45.7826 55.9487 45.501 56.1935C45.2133 56.4384 44.791 56.5609 44.2401 56.5609C43.885 56.5609 43.3769 56.4996 42.7158 56.3833C42.1464 56.2854 41.6139 56.2364 41.1242 56.2364C40.6345 56.2364 40.261 56.3405 40.01 56.5425C39.6612 56.8302 39.349 57.4363 39.0673 58.3544C38.7858 59.2727 38.3328 61.0908 37.6961 63.8087L35.9209 71.3197C35.0394 75.0845 34.5925 77.0556 34.5925 77.2209C34.5925 77.6065 34.7333 77.7964 35.0088 77.7964C35.2721 77.7964 35.6516 77.6371 36.1536 77.331C37.1452 76.7066 38.1369 75.9109 39.1346 74.9436ZM47.9373 74.9436L48.5434 75.5864C47.613 76.6393 46.5111 77.6003 45.2379 78.4697C43.9645 79.3329 42.9117 79.7675 42.0852 79.7675C41.718 79.7675 41.4119 79.6266 41.1731 79.345C40.9344 79.0634 40.812 78.6778 40.812 78.1881C40.812 77.2331 41.1854 75.2498 41.9261 72.238L43.8604 64.3597C44.5706 61.5192 45.1582 59.6093 45.6419 58.6422C46.3825 57.173 47.4293 56.0282 48.7883 55.2142C50.1411 54.3999 51.5735 53.9959 53.0794 53.9959C53.5937 53.9959 53.9977 54.1184 54.2914 54.3633C54.5853 54.6081 54.7322 54.908 54.7322 55.2508C54.7322 55.6365 54.5853 55.9487 54.3037 56.1935C54.016 56.4384 53.5937 56.5609 53.0428 56.5609C52.6877 56.5609 52.1796 56.4996 51.5185 56.3833C50.9491 56.2854 50.4166 56.2364 49.9269 56.2364C49.4372 56.2364 49.0637 56.3405 48.8128 56.5425C48.4639 56.8302 48.1516 57.4363 47.8701 58.3544C47.5885 59.2727 47.1355 61.0908 46.4988 63.8087L44.7236 71.3197C43.8421 75.0845 43.3953 77.0556 43.3953 77.2209C43.3953 77.6065 43.536 77.7964 43.8115 77.7964C44.0748 77.7964 44.4543 77.6371 44.9562 77.331C45.9479 76.7066 46.9396 75.9109 47.9373 74.9436ZM61.5087 63.876L62.6901 63.6251L61.3434 68.1672C60.8108 69.9669 60.3028 72.0482 59.8192 74.405C59.5559 75.6844 59.4274 76.5107 59.4274 76.8781C59.4274 77.2515 59.5743 77.4351 59.8743 77.4351C60.064 77.4351 60.3701 77.3127 60.7925 77.0617C61.5332 76.6148 62.2433 76.0701 62.9228 75.4089L63.4982 76.1067C62.1331 77.3495 61.2639 78.1084 60.8782 78.3717C60.1131 78.8921 59.3846 79.2838 58.6928 79.5348C58.2398 79.7001 57.793 79.7858 57.3644 79.7858C57.0522 79.7858 56.8197 79.7123 56.6667 79.5716C56.5075 79.4246 56.434 79.2165 56.434 78.941C56.434 78.7634 56.483 78.5187 56.5747 78.2064L57.291 75.7701C56.2626 77.0005 55.0383 78.0595 53.6181 78.941C52.7428 79.4919 51.9409 79.7675 51.2124 79.7675C50.5207 79.7675 49.9881 79.5225 49.6147 79.0328C49.1127 78.3717 48.8617 77.5148 48.8617 76.4496C48.8617 75.1824 49.2045 73.7745 49.8778 72.2197C50.5513 70.6647 51.4572 69.2508 52.5959 67.9836C53.7284 66.7164 54.9281 65.7859 56.183 65.186C57.1502 64.733 58.3928 64.5066 59.911 64.5066C60.2967 64.5066 60.6823 64.531 61.0802 64.5801L61.5087 63.876ZM59.2866 66.6246C58.6378 66.49 58.0929 66.4226 57.6522 66.4226C56.5747 66.4226 55.6382 66.7225 54.8363 67.3102C54.0344 67.9039 53.2936 68.9691 52.6019 70.5056C51.9163 72.0421 51.5735 73.5724 51.5735 75.1029C51.5735 75.9171 51.7082 76.5047 51.9837 76.8598C52.2591 77.2209 52.6203 77.3984 53.0611 77.3984C53.8874 77.3984 54.7689 76.9576 55.7178 76.0639C56.6605 75.1763 57.3523 73.8908 57.793 72.2197L59.2866 66.6246ZM81.1832 80L80.5344 71.3197C80.4058 69.5507 80.3384 68.3876 80.3384 67.8244C80.3384 66.2084 80.571 64.7269 81.0302 63.3679C81.4893 62.009 82.3034 60.5521 83.4788 58.9972C82.0769 58.9972 80.6506 59.3339 79.1998 60.0072C77.749 60.6745 76.6838 61.4459 76.0105 62.3151C75.3311 63.1904 74.9944 64.072 74.9944 64.9534C74.9944 65.3636 75.1229 65.7921 75.3739 66.245C75.6922 66.8205 75.8575 67.2551 75.8575 67.555C75.8575 67.8305 75.7718 68.0509 75.6065 68.2161C75.4352 68.3876 75.2208 68.4671 74.9577 68.4671C74.5781 68.4671 74.2415 68.2713 73.9537 67.8795C73.5987 67.353 73.415 66.6981 73.415 65.9206C73.415 64.4637 73.9659 63.0619 75.0678 61.709C76.1636 60.3561 77.6756 59.3585 79.5855 58.7157C80.8159 58.2932 82.6095 58.0055 84.9663 57.8525C85.5968 57.8035 86.2456 57.7423 86.9006 57.675C85.2907 60.0378 84.2378 62.0152 83.7481 63.6006C83.2584 65.186 83.0135 67.3347 83.0135 70.0465C83.0135 72.1279 83.1176 74.0316 83.3318 75.7517L86.7782 72.0727L89.7166 69.0609C92.6855 66.0125 94.6811 63.6067 95.7095 61.8499C96.4869 60.5215 96.8726 59.3156 96.8726 58.2259C96.8726 57.6321 96.7379 56.9711 96.4624 56.2548C96.2848 55.8018 96.1931 55.4529 96.1931 55.2142C96.1931 54.8958 96.3155 54.6143 96.5604 54.3755C96.8052 54.1368 97.093 54.0143 97.4296 54.0143C97.8825 54.0143 98.2682 54.2469 98.5804 54.7122C98.8866 55.1774 99.0456 55.9121 99.0456 56.9037C99.0456 57.8709 98.8437 58.8931 98.4335 59.9767C98.0295 61.0602 97.1725 62.4375 95.8686 64.1086C94.5648 65.7859 92.5508 68.0019 89.8267 70.7627C86.968 73.6582 84.0848 76.7374 81.1832 80ZM105.681 74.7661L106.275 75.5558C103.343 78.3411 100.833 79.7307 98.7396 79.7307C97.8887 79.7307 97.246 79.443 96.7929 78.8737C96.3461 78.2983 96.1196 77.3739 96.1196 76.1067C96.1196 73.548 96.897 71.0014 98.452 68.4671C100.196 65.59 102.284 64.1453 104.714 64.1453C105.559 64.1453 106.208 64.3596 106.661 64.782C107.108 65.2106 107.328 65.7921 107.328 66.5328C107.328 67.3102 107.065 68.0754 106.526 68.8283C105.987 69.5813 105.026 70.3648 103.637 71.179C102.945 71.5707 101.458 72.2809 99.1865 73.3093C99.0824 73.9581 99.0273 74.5703 99.0273 75.158C99.0273 76.0089 99.162 76.5965 99.4313 76.9332C99.7006 77.2698 100.092 77.4351 100.607 77.4351C101.096 77.4351 101.635 77.3004 102.223 77.025C103.006 76.6516 104.163 75.8986 105.681 74.7661ZM99.4069 72.1645C101.329 71.3014 102.774 70.3771 103.747 69.3854C104.402 68.6875 104.733 68.0019 104.733 67.3224C104.733 66.8083 104.598 66.398 104.328 66.092C104.059 65.7859 103.71 65.6329 103.276 65.6329C102.835 65.6329 102.406 65.8044 101.984 66.1349C101.427 66.5818 100.949 67.249 100.57 68.1488C100.019 69.4589 99.6334 70.7995 99.4069 72.1645ZM109.305 68.3814L108.693 67.7509C110.224 66.2941 111.442 65.3269 112.354 64.8494C113.26 64.3657 114.037 64.127 114.686 64.127C114.937 64.127 115.133 64.1821 115.274 64.2922C115.421 64.3963 115.488 64.5249 115.488 64.6657C115.488 64.7759 115.464 64.9656 115.402 65.2411L114.594 68.8468C115.813 67.4938 117.343 66.2328 119.185 65.0636C120.165 64.4515 120.973 64.1453 121.603 64.1453C122.075 64.1453 122.436 64.2984 122.699 64.5984C122.962 64.8923 123.097 65.3269 123.097 65.8839C123.097 66.2573 123.042 66.6736 122.932 67.145C122.742 67.9162 122.24 69.6119 121.426 72.2197C120.661 74.656 120.281 76.2782 120.281 77.0802C120.281 77.3189 120.312 77.4963 120.385 77.6126C120.459 77.735 120.563 77.7964 120.691 77.7964C121.04 77.7964 121.585 77.4596 122.326 76.7923C122.852 76.3149 123.372 75.868 123.899 75.464L124.352 76.1067C123.25 77.331 122.105 78.3105 120.924 79.0512C120.171 79.5287 119.547 79.7675 119.057 79.7675C118.604 79.7675 118.255 79.6022 118.004 79.2715C117.753 78.9472 117.624 78.4085 117.624 77.6678C117.624 76.6027 118.285 73.9581 119.614 69.722C120.024 68.2161 120.226 67.3408 120.226 67.0898C120.226 66.7164 120.006 66.5328 119.559 66.5328C119.081 66.5328 118.469 66.7837 117.716 67.2857C116.59 68.0265 115.653 68.9017 114.9 69.9058C114.423 70.5485 114.019 71.5769 113.694 72.9909L112.244 79.2471H109.575C110.077 77.4535 110.511 75.7395 110.879 74.099L112.476 67.2857C112.537 67.0103 112.568 66.8143 112.568 66.6919C112.568 66.3736 112.446 66.2084 112.207 66.2084C112.017 66.2084 111.742 66.3369 111.387 66.5878C110.64 67.0776 109.948 67.6714 109.305 68.3814ZM135.058 74.7661L135.652 75.5558C132.72 78.3411 130.21 79.7307 128.117 79.7307C127.266 79.7307 126.623 79.443 126.17 78.8737C125.723 78.2983 125.497 77.3739 125.497 76.1067C125.497 73.548 126.274 71.0014 127.829 68.4671C129.574 65.59 131.661 64.1453 134.091 64.1453C134.936 64.1453 135.585 64.3596 136.038 64.782C136.485 65.2106 136.705 65.7921 136.705 66.5328C136.705 67.3102 136.442 68.0754 135.903 68.8283C135.365 69.5813 134.403 70.3648 133.014 71.179C132.322 71.5707 130.835 72.2809 128.564 73.3093C128.46 73.9581 128.404 74.5703 128.404 75.158C128.404 76.0089 128.539 76.5965 128.808 76.9332C129.078 77.2698 129.47 77.4351 129.984 77.4351C130.473 77.4351 131.012 77.3004 131.6 77.025C132.383 76.6516 133.54 75.8986 135.058 74.7661ZM128.784 72.1645C130.706 71.3014 132.151 70.3771 133.124 69.3854C133.779 68.6875 134.11 68.0019 134.11 67.3224C134.11 66.8083 133.975 66.398 133.706 66.092C133.436 65.7859 133.087 65.6329 132.653 65.6329C132.212 65.6329 131.784 65.8044 131.361 66.1349C130.804 66.5818 130.327 67.249 129.947 68.1488C129.396 69.4589 129.01 70.7995 128.784 72.1645ZM149.475 66.0492C148.391 66.3491 147.393 66.496 146.481 66.496C145.979 66.496 145.422 66.4654 144.816 66.4042C143.965 66.3124 143.396 66.2634 143.108 66.2634C142.753 66.2634 142.478 66.3491 142.288 66.5144C142.092 66.6796 142 66.894 142 67.1571C142 67.5673 142.215 67.7877 142.643 67.8244C143.182 67.8856 143.451 68.1305 143.451 68.559C143.451 68.761 143.365 68.9446 143.2 69.1038C143.035 69.2691 142.839 69.3486 142.625 69.3486C142.196 69.3486 141.798 69.1344 141.431 68.7121C141.07 68.2896 140.886 67.7571 140.886 67.1265C140.886 66.3124 141.229 65.6146 141.909 65.0269C142.588 64.4392 143.433 64.1453 144.437 64.1453C144.963 64.1453 145.673 64.2188 146.573 64.3597C148.018 64.5922 149.058 64.7025 149.689 64.7025C150.338 64.7025 150.944 64.4882 151.501 64.0597C151.764 63.8638 151.984 63.7719 152.15 63.7719C152.291 63.7719 152.413 63.8148 152.517 63.9066C152.621 63.9923 152.67 64.0841 152.67 64.1638C152.67 64.2862 152.603 64.4148 152.474 64.5616C152.064 65.0636 151.14 66.0063 149.689 67.3959L144.131 72.7215C142.508 74.2765 141.155 75.5314 140.078 76.4864C140.764 76.4129 141.29 76.3761 141.676 76.3761C142.215 76.3761 142.704 76.4251 143.145 76.5107C143.586 76.6027 144.302 76.8107 145.281 77.1291C146.561 77.576 147.601 77.7964 148.403 77.7964C148.905 77.7964 149.291 77.68 149.56 77.4474C149.824 77.2148 149.958 76.9148 149.958 76.5598C149.958 76.3517 149.866 76.0701 149.677 75.6967C149.505 75.3355 149.426 75.06 149.426 74.8702C149.426 74.5825 149.518 74.3377 149.707 74.1356C149.903 73.9337 150.142 73.8296 150.43 73.8296C150.772 73.8296 151.066 73.9704 151.299 74.252C151.531 74.5336 151.648 74.8947 151.648 75.3355C151.648 76.0089 151.403 76.7128 150.913 77.4474C150.423 78.1819 149.805 78.7451 149.064 79.1369C148.324 79.5348 147.406 79.7307 146.322 79.7307C145.422 79.7307 144.112 79.4736 142.392 78.9593C140.96 78.5432 139.907 78.3351 139.233 78.3351C138.829 78.3351 138.358 78.5492 137.819 78.9778C137.507 79.241 137.238 79.3756 137.011 79.3756C136.571 79.3756 136.35 79.2655 136.35 79.0512C136.35 78.8492 136.473 78.6044 136.724 78.3166C137.397 77.5269 139.093 75.8925 141.817 73.4194C143.659 71.7422 145.275 70.2179 146.659 68.8468L149.475 66.0492ZM161.944 56.469C162.311 56.469 162.617 56.5915 162.856 56.8364C163.095 57.0812 163.217 57.3995 163.217 57.7791C163.217 58.3055 163.034 58.7707 162.666 59.1686C162.305 59.5727 161.895 59.7685 161.442 59.7685C161.081 59.7685 160.781 59.6461 160.542 59.3951C160.303 59.1441 160.187 58.8136 160.187 58.4096C160.187 57.8709 160.359 57.4117 160.707 57.0383C161.05 56.6588 161.467 56.469 161.944 56.469ZM154.88 68.3447L154.09 67.7326C155.284 66.4165 156.374 65.4859 157.359 64.9289C158.345 64.3719 159.189 64.0903 159.881 64.0903C160.261 64.0903 160.554 64.176 160.757 64.3413C160.965 64.5126 161.063 64.7392 161.063 65.0269C161.063 65.3697 160.677 66.8449 159.899 69.4404C158.632 73.6827 157.996 76.2414 157.996 77.1108C157.996 77.2821 158.039 77.4229 158.124 77.5331C158.204 77.6494 158.296 77.7044 158.394 77.7044C158.773 77.7044 159.753 76.9638 161.332 75.4823L162.03 76.1619C160.395 77.7044 159.202 78.69 158.449 79.1247C157.69 79.5531 157.077 79.7675 156.6 79.7675C156.178 79.7675 155.847 79.6388 155.602 79.3756C155.357 79.1125 155.235 78.7451 155.235 78.2799C155.235 76.7863 156.135 73.1317 157.928 67.3224C158.008 67.047 158.051 66.8022 158.051 66.5878C158.051 66.3491 157.947 66.2267 157.726 66.2267C157.488 66.2267 157.218 66.3247 156.912 66.5144C156.606 66.7042 155.927 67.3163 154.88 68.3447ZM175.338 63.876L176.519 63.6251L175.173 68.1672C174.64 69.9669 174.132 72.0482 173.648 74.405C173.385 75.6844 173.257 76.5107 173.257 76.8781C173.257 77.2515 173.403 77.4351 173.703 77.4351C173.893 77.4351 174.199 77.3127 174.622 77.0617C175.362 76.6148 176.072 76.0701 176.752 75.4089L177.327 76.1067C175.962 77.3495 175.093 78.1084 174.707 78.3717C173.942 78.8921 173.214 79.2838 172.522 79.5348C172.069 79.7001 171.622 79.7858 171.194 79.7858C170.881 79.7858 170.649 79.7123 170.496 79.5716C170.337 79.4246 170.263 79.2165 170.263 78.941C170.263 78.7634 170.312 78.5187 170.404 78.2064L171.12 75.7701C170.092 77.0005 168.867 78.0595 167.447 78.941C166.572 79.4919 165.77 79.7675 165.042 79.7675C164.35 79.7675 163.817 79.5225 163.444 79.0328C162.942 78.3717 162.691 77.5148 162.691 76.4496C162.691 75.1824 163.034 73.7745 163.707 72.2197C164.38 70.6647 165.286 69.2508 166.425 67.9836C167.557 66.7164 168.757 65.7859 170.012 65.186C170.979 64.733 172.222 64.5066 173.74 64.5066C174.126 64.5066 174.512 64.531 174.909 64.5801L175.338 63.876ZM173.116 66.6246C172.467 66.49 171.922 66.4226 171.481 66.4226C170.404 66.4226 169.467 66.7225 168.665 67.3102C167.864 67.9039 167.123 68.9691 166.431 70.5056C165.745 72.0421 165.403 73.5724 165.403 75.1029C165.403 75.9171 165.537 76.5047 165.813 76.8598C166.088 77.2209 166.449 77.3984 166.89 77.3984C167.717 77.3984 168.598 76.9576 169.547 76.0639C170.49 75.1763 171.181 73.8908 171.622 72.2197L173.116 66.6246Z" fill="white"/>
<path fill-rule="evenodd" clip-rule="evenodd" d="M94.0099 28.9211C95.2586 30.4947 96.005 32.4851 96.005 34.6494C96.005 39.743 91.8744 43.8736 86.7808 43.8736C81.6875 43.8736 77.5569 39.743 77.5569 34.6494C77.5569 32.485 78.3034 30.4945 79.5521 28.9209C78.9532 30.0568 78.6136 31.3505 78.6136 32.7234C78.6136 37.2335 82.271 40.8909 86.7808 40.8909C91.291 40.8909 94.9482 37.2335 94.9482 32.7234C94.9482 31.3505 94.6087 30.0569 94.0099 28.9211Z" fill="white"/>
<path fill-rule="evenodd" clip-rule="evenodd" d="M86.7933 0.89035C91.0505 0.875066 92.5299 3.19567 93.012 4.40582C93.0167 4.47031 93.0281 4.53621 93.0471 4.6045C94.136 8.52761 89.9099 16.7149 90.5813 21.9107C90.7296 21.8858 90.8839 21.8745 91.013 21.9107C90.8159 17.3339 94.6443 10.1731 94.3498 6.25848C94.3225 5.8977 94.5199 4.11922 95.2279 3.89437C96.3902 3.52526 98.1796 3.63205 99.4842 4.07366C100.897 4.55182 101.69 5.05371 102.331 5.86406C102.58 6.17891 103.051 6.69176 103.013 7.21185C102.38 7.52342 101.925 8.1663 101.615 9.06471C100.839 11.3106 100.839 17.1059 99.0731 18.8084C99.3316 18.9896 99.4509 19.504 99.6732 19.4104C101.797 17.1728 102.208 9.46778 104.342 8.88474C107.894 7.91472 110.325 12.7054 111.439 14.6832C108.126 15.6711 105.005 24.1677 102.972 24.6939C102.972 24.8389 102.851 25.6988 103.153 25.6263C105.393 24.7932 109.441 17.6546 110.725 16.8219C112.058 15.9575 112.865 15.5244 114.13 17.2846C115.656 19.4093 114.894 24.6041 114.808 25.249C114.213 25.5391 113.626 25.9914 113.112 26.5797C111.061 28.9279 103.076 33.2941 103.076 33.2941C103.076 33.2941 103.11 33.3308 103.415 33.4775C103.721 33.2941 112.011 29.5106 114.11 27.8073C115.787 26.446 117.544 26.2858 117.639 28.459C117.734 30.6488 116.431 33.8296 113.415 35.6495C109.786 37.8382 103.45 39.6246 99.1536 39.756C98.7912 39.7671 97.6104 39.6393 97.6104 40.7248C97.6104 41.4461 93.0614 43.409 94.882 43.9312C95.162 44.0115 95.9843 42.6555 98.9349 42.469C103.825 42.1595 110.86 43.4291 113.83 43.1676C114.951 43.0692 114.964 41.8935 114.959 41.9078C115.208 41.9175 100.974 42.0135 99.7309 41.1621C99.3914 40.9296 100.753 40.8117 100.823 40.8112C107.172 40.7649 112.792 37.2624 115.076 35.9358C117.518 34.5174 118.872 31.0192 118.567 27.5338C118.359 25.1622 116.839 24.511 115.256 25.062C115.485 23.5297 116.306 15.2356 112.824 14.4445C112.613 14.3963 112.4 14.3888 112.185 14.4153L112.186 14.4141C111.987 13.8945 108.901 9.49552 107.172 8.30425C105.848 7.39197 104.783 6.98906 103.937 7.00018C103.406 5.9681 100.788 1.79673 93.6904 3.18907C92.1597 0.904219 89.4105 0.00960703 86.7593 0.00439121C82.2927 -0.126166 80.2041 2.69409 79.8725 3.18907C72.7751 1.79673 70.1568 5.9681 69.6261 7.00018C68.7801 6.98906 67.7147 7.39197 66.3908 8.30425C64.6619 9.49552 61.5755 13.8945 61.3772 14.4141L61.3776 14.4153C61.1633 14.3888 60.9503 14.3963 60.7388 14.4445C57.2572 15.2356 58.0782 23.5297 58.3069 25.062C56.7235 24.511 55.2036 25.1622 54.9957 27.5338C54.6904 31.0192 56.0451 34.5174 58.4869 35.9358C60.7704 37.2624 66.391 40.7649 72.74 40.8112C72.8094 40.8116 74.1714 40.9296 73.832 41.1621C72.5892 42.0135 58.3544 41.9175 58.6041 41.9078C58.5984 41.8935 58.6114 43.0692 59.7329 43.1676C62.7031 43.4291 69.7377 42.1595 74.6279 42.469C77.5785 42.6555 78.4009 44.0115 78.6809 43.9312C80.5014 43.409 75.9525 41.4461 75.9525 40.7248C75.9525 39.6393 74.7716 39.7671 74.4093 39.756C70.1124 39.6246 63.7765 37.8382 60.1483 35.6495C57.1316 33.8296 55.8293 30.6488 55.9243 28.459C56.0184 26.2858 57.7757 26.446 59.4533 27.8073C61.5518 29.5106 69.8423 33.2941 70.1478 33.4775C70.4532 33.3308 70.4872 33.2941 70.4872 33.2941C70.4872 33.2941 62.5015 28.9279 60.4505 26.5797C59.9368 25.9914 59.3496 25.5391 58.7546 25.249C58.6686 24.6041 57.9064 19.4093 59.4328 17.2846C60.6974 15.5244 61.5052 15.9575 62.8375 16.8219C64.1215 17.6546 68.1701 24.7932 70.4103 25.6263C70.7118 25.6988 70.5913 24.8389 70.5913 24.6939C68.5576 24.1677 65.4371 15.6711 62.1243 14.6832C63.2378 12.7054 65.669 7.91472 69.2213 8.88474C71.3553 9.46778 71.7657 17.1728 73.8897 19.4104C74.112 19.504 74.2312 18.9896 74.4897 18.8084C72.7234 17.1059 72.7234 11.3106 71.9481 9.06471C71.6378 8.1663 71.183 7.52342 70.5502 7.21185C70.5117 6.69176 70.9826 6.17891 71.2319 5.86406C71.8734 5.05371 72.6658 4.55182 74.0786 4.07366C75.3833 3.63205 77.1727 3.52526 78.335 3.89437C79.043 4.11922 79.2403 5.8977 79.2131 6.25848C78.9185 10.1731 82.747 17.3339 82.5498 21.9107C82.679 21.8745 82.8333 21.8858 82.9815 21.9107C83.653 16.7149 79.4269 8.52761 80.5158 4.6045C80.5347 4.53621 80.5462 4.47031 80.5508 4.40582C81.5725 1.84145 84.1827 0.89035 86.7933 0.89035Z" fill="white"/>
<path fill-rule="evenodd" clip-rule="evenodd" d="M7.76822 80L7.11939 71.3197C6.99078 69.5507 6.92337 68.3876 6.92337 67.8244C6.92337 66.2084 7.15606 64.7269 7.61518 63.3679C8.07433 62.009 8.8884 60.5521 10.0638 58.9972C8.66194 58.9972 7.23559 59.3339 5.78483 60.0072C4.33406 60.6745 3.26886 61.4459 2.5955 62.3151C1.9161 63.1904 1.57934 64.072 1.57934 64.9534C1.57934 65.3636 1.70796 65.7921 1.95897 66.245C2.27725 66.8205 2.4425 67.2551 2.4425 67.555C2.4425 67.8305 2.35678 68.0509 2.19149 68.2161C2.02014 68.3876 1.80585 68.4671 1.54267 68.4671C1.16309 68.4671 0.826484 68.2713 0.538684 67.8795C0.183726 67.353 0 66.6981 0 65.9206C0 64.4637 0.550936 63.0619 1.65281 61.709C2.74862 60.3561 4.2606 59.3585 6.17052 58.7157C7.40088 58.2932 9.19456 58.0055 11.5513 57.8525C12.1818 57.8035 12.8306 57.7423 13.4856 57.675C11.8757 60.0378 10.8229 62.0152 10.3331 63.6006C9.84338 65.186 9.59857 67.3347 9.59857 70.0465C9.59857 72.1279 9.70264 74.0316 9.91685 75.7517L13.3632 72.0727L16.3015 69.0609C19.2705 66.0125 21.2661 63.6067 22.2945 61.8499C23.0719 60.5215 23.4576 59.3156 23.4576 58.2259C23.4576 57.6321 23.3229 56.9711 23.0474 56.2548C22.8699 55.8018 22.7781 55.4529 22.7781 55.2142C22.7781 54.8958 22.9005 54.6143 23.1454 54.3755C23.3902 54.1368 23.678 54.0143 24.0146 54.0143C24.4676 54.0143 24.8533 54.2469 25.1654 54.7122C25.4716 55.1774 25.6307 55.9121 25.6307 56.9037C25.6307 57.8709 25.4287 58.8931 25.0185 59.9767C24.6145 61.0602 23.7575 62.4375 22.4536 64.1086C21.1498 65.7859 19.1358 68.0019 16.4117 70.7627C13.553 73.6582 10.6698 76.7374 7.76822 80ZM30.5095 56.469C30.8768 56.469 31.183 56.5915 31.4217 56.8364C31.6604 57.0812 31.7828 57.3995 31.7828 57.7791C31.7828 58.3055 31.5991 58.7707 31.2319 59.1686C30.8707 59.5727 30.4606 59.7685 30.0076 59.7685C29.6464 59.7685 29.3464 59.6461 29.1077 59.3951C28.8689 59.1441 28.7527 58.8136 28.7527 58.4096C28.7527 57.8709 28.924 57.4117 29.2729 57.0383C29.6157 56.6588 30.032 56.469 30.5095 56.469ZM23.4453 68.3447L22.6557 67.7326C23.8494 66.4165 24.939 65.4859 25.9245 64.9289C26.9101 64.3719 27.7549 64.0903 28.4466 64.0903C28.8262 64.0903 29.1199 64.176 29.322 64.3413C29.5301 64.5126 29.628 64.7392 29.628 65.0269C29.628 65.3697 29.2423 66.8449 28.4649 69.4404C27.1978 73.6827 26.5612 76.2414 26.5612 77.1108C26.5612 77.2821 26.6041 77.4229 26.6897 77.5331C26.7693 77.6494 26.8611 77.7044 26.959 77.7044C27.3386 77.7044 28.318 76.9638 29.8973 75.4823L30.5952 76.1619C28.9608 77.7044 27.7672 78.69 27.0141 79.1247C26.2551 79.5531 25.6429 79.7675 25.1654 79.7675C24.7431 79.7675 24.4125 79.6388 24.1676 79.3756C23.9228 79.1125 23.8004 78.7451 23.8004 78.2799C23.8004 76.7863 24.7002 73.1317 26.4938 67.3224C26.5735 67.047 26.6162 66.8022 26.6162 66.5878C26.6162 66.3491 26.5121 66.2267 26.2919 66.2267C26.0531 66.2267 25.7838 66.3247 25.4777 66.5144C25.1716 66.7042 24.4921 67.3163 23.4453 68.3447ZM39.1346 74.9436L39.7407 75.5864C38.8103 76.6393 37.7084 77.6003 36.4352 78.4697C35.1618 79.3329 34.109 79.7675 33.2825 79.7675C32.9153 79.7675 32.6092 79.6266 32.3704 79.345C32.1317 79.0634 32.0093 78.6778 32.0093 78.1881C32.0093 77.2331 32.3827 75.2498 33.1234 72.238L35.0577 64.3597C35.7679 61.5192 36.3555 59.6093 36.8392 58.6422C37.5798 57.173 38.6265 56.0282 39.9856 55.2142C41.3384 54.3999 42.7708 53.9959 44.2767 53.9959C44.791 53.9959 45.195 54.1184 45.4887 54.3633C45.7826 54.6081 45.9295 54.908 45.9295 55.2508C45.9295 55.6365 45.7826 55.9487 45.501 56.1935C45.2133 56.4384 44.791 56.5609 44.2401 56.5609C43.885 56.5609 43.3769 56.4996 42.7158 56.3833C42.1464 56.2854 41.6139 56.2364 41.1242 56.2364C40.6345 56.2364 40.261 56.3405 40.01 56.5425C39.6612 56.8302 39.349 57.4363 39.0673 58.3544C38.7858 59.2727 38.3328 61.0908 37.6961 63.8087L35.9209 71.3197C35.0394 75.0845 34.5925 77.0556 34.5925 77.2209C34.5925 77.6065 34.7333 77.7964 35.0088 77.7964C35.2721 77.7964 35.6516 77.6371 36.1536 77.331C37.1452 76.7066 38.1369 75.9109 39.1346 74.9436ZM47.9373 74.9436L48.5434 75.5864C47.613 76.6393 46.5111 77.6003 45.2379 78.4697C43.9645 79.3329 42.9117 79.7675 42.0852 79.7675C41.718 79.7675 41.4119 79.6266 41.1731 79.345C40.9344 79.0634 40.812 78.6778 40.812 78.1881C40.812 77.2331 41.1854 75.2498 41.9261 72.238L43.8604 64.3597C44.5706 61.5192 45.1582 59.6093 45.6419 58.6422C46.3825 57.173 47.4293 56.0282 48.7883 55.2142C50.1411 54.3999 51.5735 53.9959 53.0794 53.9959C53.5937 53.9959 53.9977 54.1184 54.2914 54.3633C54.5853 54.6081 54.7322 54.908 54.7322 55.2508C54.7322 55.6365 54.5853 55.9487 54.3037 56.1935C54.016 56.4384 53.5937 56.5609 53.0428 56.5609C52.6877 56.5609 52.1796 56.4996 51.5185 56.3833C50.9491 56.2854 50.4166 56.2364 49.9269 56.2364C49.4372 56.2364 49.0637 56.3405 48.8128 56.5425C48.4639 56.8302 48.1516 57.4363 47.8701 58.3544C47.5885 59.2727 47.1355 61.0908 46.4988 63.8087L44.7236 71.3197C43.8421 75.0845 43.3953 77.0556 43.3953 77.2209C43.3953 77.6065 43.536 77.7964 43.8115 77.7964C44.0748 77.7964 44.4543 77.6371 44.9562 77.331C45.9479 76.7066 46.9396 75.9109 47.9373 74.9436ZM61.5087 63.876L62.6901 63.6251L61.3434 68.1672C60.8108 69.9669 60.3028 72.0482 59.8192 74.405C59.5559 75.6844 59.4274 76.5107 59.4274 76.8781C59.4274 77.2515 59.5743 77.4351 59.8743 77.4351C60.064 77.4351 60.3701 77.3127 60.7925 77.0617C61.5332 76.6148 62.2433 76.0701 62.9228 75.4089L63.4982 76.1067C62.1331 77.3495 61.2639 78.1084 60.8782 78.3717C60.1131 78.8921 59.3846 79.2838 58.6928 79.5348C58.2398 79.7001 57.793 79.7858 57.3644 79.7858C57.0522 79.7858 56.8197 79.7123 56.6667 79.5716C56.5075 79.4246 56.434 79.2165 56.434 78.941C56.434 78.7634 56.483 78.5187 56.5747 78.2064L57.291 75.7701C56.2626 77.0005 55.0383 78.0595 53.6181 78.941C52.7428 79.4919 51.9409 79.7675 51.2124 79.7675C50.5207 79.7675 49.9881 79.5225 49.6147 79.0328C49.1127 78.3717 48.8617 77.5148 48.8617 76.4496C48.8617 75.1824 49.2045 73.7745 49.8778 72.2197C50.5513 70.6647 51.4572 69.2508 52.5959 67.9836C53.7284 66.7164 54.9281 65.7859 56.183 65.186C57.1502 64.733 58.3928 64.5066 59.911 64.5066C60.2967 64.5066 60.6823 64.531 61.0802 64.5801L61.5087 63.876ZM59.2866 66.6246C58.6378 66.49 58.0929 66.4226 57.6522 66.4226C56.5747 66.4226 55.6382 66.7225 54.8363 67.3102C54.0344 67.9039 53.2936 68.9691 52.6019 70.5056C51.9163 72.0421 51.5735 73.5724 51.5735 75.1029C51.5735 75.9171 51.7082 76.5047 51.9837 76.8598C52.2591 77.2209 52.6203 77.3984 53.0611 77.3984C53.8874 77.3984 54.7689 76.9576 55.7178 76.0639C56.6605 75.1763 57.3523 73.8908 57.793 72.2197L59.2866 66.6246ZM81.1832 80L80.5344 71.3197C80.4058 69.5507 80.3384 68.3876 80.3384 67.8244C80.3384 66.2084 80.571 64.7269 81.0302 63.3679C81.4893 62.009 82.3034 60.5521 83.4788 58.9972C82.0769 58.9972 80.6506 59.3339 79.1998 60.0072C77.749 60.6745 76.6838 61.4459 76.0105 62.3151C75.3311 63.1904 74.9944 64.072 74.9944 64.9534C74.9944 65.3636 75.1229 65.7921 75.3739 66.245C75.6922 66.8205 75.8575 67.2551 75.8575 67.555C75.8575 67.8305 75.7718 68.0509 75.6065 68.2161C75.4352 68.3876 75.2208 68.4671 74.9577 68.4671C74.5781 68.4671 74.2415 68.2713 73.9537 67.8795C73.5987 67.353 73.415 66.6981 73.415 65.9206C73.415 64.4637 73.9659 63.0619 75.0678 61.709C76.1636 60.3561 77.6756 59.3585 79.5855 58.7157C80.8159 58.2932 82.6095 58.0055 84.9663 57.8525C85.5968 57.8035 86.2456 57.7423 86.9006 57.675C85.2907 60.0378 84.2378 62.0152 83.7481 63.6006C83.2584 65.186 83.0135 67.3347 83.0135 70.0465C83.0135 72.1279 83.1176 74.0316 83.3318 75.7517L86.7782 72.0727L89.7166 69.0609C92.6855 66.0125 94.6811 63.6067 95.7095 61.8499C96.4869 60.5215 96.8726 59.3156 96.8726 58.2259C96.8726 57.6321 96.7379 56.9711 96.4624 56.2548C96.2848 55.8018 96.1931 55.4529 96.1931 55.2142C96.1931 54.8958 96.3155 54.6143 96.5604 54.3755C96.8052 54.1368 97.093 54.0143 97.4296 54.0143C97.8825 54.0143 98.2682 54.2469 98.5804 54.7122C98.8866 55.1774 99.0456 55.9121 99.0456 56.9037C99.0456 57.8709 98.8437 58.8931 98.4335 59.9767C98.0295 61.0602 97.1725 62.4375 95.8686 64.1086C94.5648 65.7859 92.5508 68.0019 89.8267 70.7627C86.968 73.6582 84.0848 76.7374 81.1832 80ZM105.681 74.7661L106.275 75.5558C103.343 78.3411 100.833 79.7307 98.7396 79.7307C97.8887 79.7307 97.246 79.443 96.7929 78.8737C96.3461 78.2983 96.1196 77.3739 96.1196 76.1067C96.1196 73.548 96.897 71.0014 98.452 68.4671C100.196 65.59 102.284 64.1453 104.714 64.1453C105.559 64.1453 106.208 64.3596 106.661 64.782C107.108 65.2106 107.328 65.7921 107.328 66.5328C107.328 67.3102 107.065 68.0754 106.526 68.8283C105.987 69.5813 105.026 70.3648 103.637 71.179C102.945 71.5707 101.458 72.2809 99.1865 73.3093C99.0824 73.9581 99.0273 74.5703 99.0273 75.158C99.0273 76.0089 99.162 76.5965 99.4313 76.9332C99.7006 77.2698 100.092 77.4351 100.607 77.4351C101.096 77.4351 101.635 77.3004 102.223 77.025C103.006 76.6516 104.163 75.8986 105.681 74.7661ZM99.4069 72.1645C101.329 71.3014 102.774 70.3771 103.747 69.3854C104.402 68.6875 104.733 68.0019 104.733 67.3224C104.733 66.8083 104.598 66.398 104.328 66.092C104.059 65.7859 103.71 65.6329 103.276 65.6329C102.835 65.6329 102.406 65.8044 101.984 66.1349C101.427 66.5818 100.949 67.249 100.57 68.1488C100.019 69.4589 99.6334 70.7995 99.4069 72.1645ZM109.305 68.3814L108.693 67.7509C110.224 66.2941 111.442 65.3269 112.354 64.8494C113.26 64.3657 114.037 64.127 114.686 64.127C114.937 64.127 115.133 64.1821 115.274 64.2922C115.421 64.3963 115.488 64.5249 115.488 64.6657C115.488 64.7759 115.464 64.9656 115.402 65.2411L114.594 68.8468C115.813 67.4938 117.343 66.2328 119.185 65.0636C120.165 64.4515 120.973 64.1453 121.603 64.1453C122.075 64.1453 122.436 64.2984 122.699 64.5984C122.962 64.8923 123.097 65.3269 123.097 65.8839C123.097 66.2573 123.042 66.6736 122.932 67.145C122.742 67.9162 122.24 69.6119 121.426 72.2197C120.661 74.656 120.281 76.2782 120.281 77.0802C120.281 77.3189 120.312 77.4963 120.385 77.6126C120.459 77.735 120.563 77.7964 120.691 77.7964C121.04 77.7964 121.585 77.4596 122.326 76.7923C122.852 76.3149 123.372 75.868 123.899 75.464L124.352 76.1067C123.25 77.331 122.105 78.3105 120.924 79.0512C120.171 79.5287 119.547 79.7675 119.057 79.7675C118.604 79.7675 118.255 79.6022 118.004 79.2715C117.753 78.9472 117.624 78.4085 117.624 77.6678C117.624 76.6027 118.285 73.9581 119.614 69.722C120.024 68.2161 120.226 67.3408 120.226 67.0898C120.226 66.7164 120.006 66.5328 119.559 66.5328C119.081 66.5328 118.469 66.7837 117.716 67.2857C116.59 68.0265 115.653 68.9017 114.9 69.9058C114.423 70.5485 114.019 71.5769 113.694 72.9909L112.244 79.2471H109.575C110.077 77.4535 110.511 75.7395 110.879 74.099L112.476 67.2857C112.537 67.0103 112.568 66.8143 112.568 66.6919C112.568 66.3736 112.446 66.2084 112.207 66.2084C112.017 66.2084 111.742 66.3369 111.387 66.5878C110.64 67.0776 109.948 67.6714 109.305 68.3814ZM135.058 74.7661L135.652 75.5558C132.72 78.3411 130.21 79.7307 128.117 79.7307C127.266 79.7307 126.623 79.443 126.17 78.8737C125.723 78.2983 125.497 77.3739 125.497 76.1067C125.497 73.548 126.274 71.0014 127.829 68.4671C129.574 65.59 131.661 64.1453 134.091 64.1453C134.936 64.1453 135.585 64.3596 136.038 64.782C136.485 65.2106 136.705 65.7921 136.705 66.5328C136.705 67.3102 136.442 68.0754 135.903 68.8283C135.365 69.5813 134.403 70.3648 133.014 71.179C132.322 71.5707 130.835 72.2809 128.564 73.3093C128.46 73.9581 128.404 74.5703 128.404 75.158C128.404 76.0089 128.539 76.5965 128.808 76.9332C129.078 77.2698 129.47 77.4351 129.984 77.4351C130.473 77.4351 131.012 77.3004 131.6 77.025C132.383 76.6516 133.54 75.8986 135.058 74.7661ZM128.784 72.1645C130.706 71.3014 132.151 70.3771 133.124 69.3854C133.779 68.6875 134.11 68.0019 134.11 67.3224C134.11 66.8083 133.975 66.398 133.706 66.092C133.436 65.7859 133.087 65.6329 132.653 65.6329C132.212 65.6329 131.784 65.8044 131.361 66.1349C130.804 66.5818 130.327 67.249 129.947 68.1488C129.396 69.4589 129.01 70.7995 128.784 72.1645ZM149.475 66.0492C148.391 66.3491 147.393 66.496 146.481 66.496C145.979 66.496 145.422 66.4654 144.816 66.4042C143.965 66.3124 143.396 66.2634 143.108 66.2634C142.753 66.2634 142.478 66.3491 142.288 66.5144C142.092 66.6796 142 66.894 142 67.1571C142 67.5673 142.215 67.7877 142.643 67.8244C143.182 67.8856 143.451 68.1305 143.451 68.559C143.451 68.761 143.365 68.9446 143.2 69.1038C143.035 69.2691 142.839 69.3486 142.625 69.3486C142.196 69.3486 141.798 69.1344 141.431 68.7121C141.07 68.2896 140.886 67.7571 140.886 67.1265C140.886 66.3124 141.229 65.6146 141.909 65.0269C142.588 64.4392 143.433 64.1453 144.437 64.1453C144.963 64.1453 145.673 64.2188 146.573 64.3597C148.018 64.5922 149.058 64.7025 149.689 64.7025C150.338 64.7025 150.944 64.4882 151.501 64.0597C151.764 63.8638 151.984 63.7719 152.15 63.7719C152.291 63.7719 152.413 63.8148 152.517 63.9066C152.621 63.9923 152.67 64.0841 152.67 64.1638C152.67 64.2862 152.603 64.4148 152.474 64.5616C152.064 65.0636 151.14 66.0063 149.689 67.3959L144.131 72.7215C142.508 74.2765 141.155 75.5314 140.078 76.4864C140.764 76.4129 141.29 76.3761 141.676 76.3761C142.215 76.3761 142.704 76.4251 143.145 76.5107C143.586 76.6027 144.302 76.8107 145.281 77.1291C146.561 77.576 147.601 77.7964 148.403 77.7964C148.905 77.7964 149.291 77.68 149.56 77.4474C149.824 77.2148 149.958 76.9148 149.958 76.5598C149.958 76.3517 149.866 76.0701 149.677 75.6967C149.505 75.3355 149.426 75.06 149.426 74.8702C149.426 74.5825 149.518 74.3377 149.707 74.1356C149.903 73.9337 150.142 73.8296 150.43 73.8296C150.772 73.8296 151.066 73.9704 151.299 74.252C151.531 74.5336 151.648 74.8947 151.648 75.3355C151.648 76.0089 151.403 76.7128 150.913 77.4474C150.423 78.1819 149.805 78.7451 149.064 79.1369C148.324 79.5348 147.406 79.7307 146.322 79.7307C145.422 79.7307 144.112 79.4736 142.392 78.9593C140.96 78.5432 139.907 78.3351 139.233 78.3351C138.829 78.3351 138.358 78.5492 137.819 78.9778C137.507 79.241 137.238 79.3756 137.011 79.3756C136.571 79.3756 136.35 79.2655 136.35 79.0512C136.35 78.8492 136.473 78.6044 136.724 78.3166C137.397 77.5269 139.093 75.8925 141.817 73.4194C143.659 71.7422 145.275 70.2179 146.659 68.8468L149.475 66.0492ZM161.944 56.469C162.311 56.469 162.617 56.5915 162.856 56.8364C163.095 57.0812 163.217 57.3995 163.217 57.7791C163.217 58.3055 163.034 58.7707 162.666 59.1686C162.305 59.5727 161.895 59.7685 161.442 59.7685C161.081 59.7685 160.781 59.6461 160.542 59.3951C160.303 59.1441 160.187 58.8136 160.187 58.4096C160.187 57.8709 160.359 57.4117 160.707 57.0383C161.05 56.6588 161.467 56.469 161.944 56.469ZM154.88 68.3447L154.09 67.7326C155.284 66.4165 156.374 65.4859 157.359 64.9289C158.345 64.3719 159.189 64.0903 159.881 64.0903C160.261 64.0903 160.554 64.176 160.757 64.3413C160.965 64.5126 161.063 64.7392 161.063 65.0269C161.063 65.3697 160.677 66.8449 159.899 69.4404C158.632 73.6827 157.996 76.2414 157.996 77.1108C157.996 77.2821 158.039 77.4229 158.124 77.5331C158.204 77.6494 158.296 77.7044 158.394 77.7044C158.773 77.7044 159.753 76.9638 161.332 75.4823L162.03 76.1619C160.395 77.7044 159.202 78.69 158.449 79.1247C157.69 79.5531 157.077 79.7675 156.6 79.7675C156.178 79.7675 155.847 79.6388 155.602 79.3756C155.357 79.1125 155.235 78.7451 155.235 78.2799C155.235 76.7863 156.135 73.1317 157.928 67.3224C158.008 67.047 158.051 66.8022 158.051 66.5878C158.051 66.3491 157.947 66.2267 157.726 66.2267C157.488 66.2267 157.218 66.3247 156.912 66.5144C156.606 66.7042 155.927 67.3163 154.88 68.3447ZM175.338 63.876L176.519 63.6251L175.173 68.1672C174.64 69.9669 174.132 72.0482 173.648 74.405C173.385 75.6844 173.257 76.5107 173.257 76.8781C173.257 77.2515 173.403 77.4351 173.703 77.4351C173.893 77.4351 174.199 77.3127 174.622 77.0617C175.362 76.6148 176.072 76.0701 176.752 75.4089L177.327 76.1067C175.962 77.3495 175.093 78.1084 174.707 78.3717C173.942 78.8921 173.214 79.2838 172.522 79.5348C172.069 79.7001 171.622 79.7858 171.194 79.7858C170.881 79.7858 170.649 79.7123 170.496 79.5716C170.337 79.4246 170.263 79.2165 170.263 78.941C170.263 78.7634 170.312 78.5187 170.404 78.2064L171.12 75.7701C170.092 77.0005 168.867 78.0595 167.447 78.941C166.572 79.4919 165.77 79.7675 165.042 79.7675C164.35 79.7675 163.817 79.5225 163.444 79.0328C162.942 78.3717 162.691 77.5148 162.691 76.4496C162.691 75.1824 163.034 73.7745 163.707 72.2197C164.38 70.6647 165.286 69.2508 166.425 67.9836C167.557 66.7164 168.757 65.7859 170.012 65.186C170.979 64.733 172.222 64.5066 173.74 64.5066C174.126 64.5066 174.512 64.531 174.909 64.5801L175.338 63.876ZM173.116 66.6246C172.467 66.49 171.922 66.4226 171.481 66.4226C170.404 66.4226 169.467 66.7225 168.665 67.3102C167.864 67.9039 167.123 68.9691 166.431 70.5056C165.745 72.0421 165.403 73.5724 165.403 75.1029C165.403 75.9171 165.537 76.5047 165.813 76.8598C166.088 77.2209 166.449 77.3984 166.89 77.3984C167.717 77.3984 168.598 76.9576 169.547 76.0639C170.49 75.1763 171.181 73.8908 171.622 72.2197L173.116 66.6246Z" fill="white"/>
</svg>
