<svg width="48" height="40" viewBox="0 0 48 40" fill="none" xmlns="http://www.w3.org/2000/svg">
<path fill-rule="evenodd" clip-rule="evenodd" d="M47.0625 7.26502H34.1027V0.939838C34.1027 0.420724 33.683 0 33.1652 0H14.8345C14.317 0 13.897 0.420724 13.897 0.939838V7.26502H0.9375C0.419678 7.26502 0 7.68574 0 8.20485V39.0602C0 39.5793 0.419678 40 0.9375 40H20.25C20.7678 40 21.1875 39.5793 21.1875 39.0602C21.1875 38.541 20.7678 38.1203 20.25 38.1203H1.875V19.2002L17.1368 24.3473V28.1632C17.1368 28.6823 17.5565 29.103 18.0743 29.103H29.9253C30.4431 29.103 30.8628 28.6823 30.8628 28.1632V24.3473L46.125 19.2002V38.1203H27.75C27.2322 38.1203 26.8125 38.541 26.8125 39.0602C26.8125 39.5793 27.2322 40 27.75 40H47.0625C47.5803 40 48 39.5793 48 39.0602V8.20485C48 7.68574 47.5803 7.26502 47.0625 7.26502ZM15.772 1.87968H32.2277V7.26502H15.772V1.87968ZM28.9878 27.2233H19.0118V21.8376H28.9878V27.2233ZM30.8628 22.3641V20.8978C30.8628 20.3791 30.4431 19.958 29.9253 19.958H18.0743C17.5565 19.958 17.1368 20.3791 17.1368 20.8978V22.3641L1.875 17.217V9.14469H46.125V17.217L30.8628 22.3641Z" fill="#AF884A"/>
<path fill-rule="evenodd" clip-rule="evenodd" d="M24 38.1204C23.4836 38.1204 23.0625 38.5426 23.0625 39.0602C23.0625 39.5778 23.4836 40 24 40C24.5164 40 24.9375 39.5778 24.9375 39.0602C24.9375 38.5426 24.5164 38.1204 24 38.1204Z" fill="#AF884A"/>
</svg>
